
<svg width="173px" height="35px" viewBox="0 0 173 35" version="1.1" xmlns="http://www.w3.org/2000/svg" xmlns:xlink="http://www.w3.org/1999/xlink">
    <!-- Generator: Sketch 51.3 (57544) - http://www.bohemiancoding.com/sketch -->
    <desc>Created with Sketch.</desc>
    <defs></defs>
    <g id="Basics" stroke="none" stroke-width="1" fill="none" fill-rule="evenodd">
        <g id="Logo" transform="translate(-377.000000, -725.000000)">
            <g id="Events-Copy-8" transform="translate(316.000000, 653.000000)">
                <g id="Group-11">
                    <path d="M122.905835,94.4662156 L126.451159,86.0471769 L126.499973,86.0471769 L129.876539,94.4662156 L122.905835,94.4662156 Z M125.586446,83.4363509 L127.48742,83.4363509 L134.744037,100.562809 L132.378628,100.562809 L130.647807,96.3560896 L122.112251,96.3560896 L120.354931,100.562809 L118.063441,100.562809 L125.586446,83.4363509 Z M109.974886,85.0263649 C106.255225,85.0263649 103.238491,88.1523565 103.238491,92.0118992 C103.238491,95.870042 106.255225,99.0002333 109.974886,99.0002333 C112.417003,99.0002333 114.552287,97.6535231 115.734992,95.6418572 L117.557863,96.7911806 C115.966512,99.3152123 113.160378,100.9993 109.966518,100.9993 C105.015337,100.9993 101,96.9703686 101,91.9993 C101,87.0296314 105.015337,83.0007 109.966518,83.0007 C113.160378,83.0007 115.966512,84.680588 117.557863,87.2088194 L115.723834,88.3651423 C114.536945,86.3618759 112.408635,85.0263649 109.974886,85.0263649 Z M196.593205,94.4662156 L200.134345,86.0471769 L200.18316,86.0471769 L203.555541,94.4662156 L196.593205,94.4662156 Z M199.265448,83.4363509 L201.169212,83.4363509 L208.427223,100.562809 L206.064604,100.562809 L204.329599,96.3560896 L195.799622,96.3560896 L194.036723,100.562809 L185.158071,100.562809 C183.767556,100.562809 182.636456,99.4330845 182.636456,98.0331778 L182.636456,83.4363509 L184.662953,83.4363509 L184.662953,98.0331778 C184.662953,98.3775548 184.934919,98.6631358 185.27941,98.6771349 L192.577868,98.6771349 L199.265448,83.4363509 Z M233.576012,93.8968735 C233.859135,94.4540364 234,95.1567895 234,95.9911339 C234,96.8492767 233.829847,97.5884274 233.49233,98.2183854 C233.156207,98.8483434 232.709904,99.364909 232.153419,99.7778815 C231.598329,100.192254 230.959557,100.494634 230.241287,100.69622 C229.516044,100.896407 228.771275,101 228.000006,101 C227.497915,101 227.002797,100.955203 226.503495,100.867009 C226.004192,100.780215 225.525811,100.638824 225.069744,100.458236 C224.613678,100.272049 224.182716,100.028465 223.778253,99.7288847 C223.377975,99.4335044 223.033484,99.0639291 222.746176,98.6327578 L224.478392,97.2020532 C224.850777,97.8278115 225.36542,98.3093794 226.019534,98.6327578 C226.682016,98.9505366 227.38076,99.1143257 228.121345,99.1143257 C228.550912,99.1143257 228.990242,99.04993 229.432362,98.9169389 C229.871692,98.7923472 230.27197,98.6019599 230.623435,98.3513766 C230.979083,98.1007933 231.270575,97.790014 231.493726,97.4176388 C231.719668,97.0494634 231.829849,96.6210919 231.829849,96.1353243 C231.829849,95.6089594 231.739193,95.1763882 231.564856,94.8418105 C231.387729,94.5114326 231.114368,94.2272515 230.748957,93.9836678 C230.373783,93.7414839 229.909349,93.5258983 229.350075,93.3313112 C228.782432,93.1353243 228.129713,92.9141391 227.369602,92.6523565 C226.760119,92.4591694 226.196661,92.239384 225.687596,91.9888007 C225.170163,91.7424172 224.722464,91.4316379 224.345896,91.0676622 C223.966538,90.7064862 223.672256,90.2697154 223.456078,89.7615492 C223.23711,89.2533831 223.132508,88.6472235 223.132508,87.9332711 C223.132508,87.1129258 223.290109,86.3961736 223.61089,85.7816146 C223.933065,85.1670555 224.365422,84.6588894 224.912143,84.244517 C225.46026,83.8357443 226.079506,83.5235651 226.768487,83.314979 C227.458863,83.1063929 228.181317,83 228.937244,83 C229.900981,83 230.78243,83.1483901 231.580198,83.4479701 C232.373781,83.7475502 233.083683,84.2683154 233.712692,85.0116659 L232.048817,86.4577695 C231.712694,85.9146057 231.262206,85.5128325 230.698748,85.2622492 C230.13529,85.0116659 229.545332,84.8856743 228.937244,84.8856743 C228.488151,84.8856743 228.048821,84.9472702 227.615069,85.0578628 C227.179923,85.1670555 226.790803,85.3378441 226.447707,85.564629 C226.096243,85.7886141 225.822882,86.089594 225.610887,86.4577695 C225.404472,86.8329445 225.29708,87.2655156 225.29708,87.7666822 C225.29708,88.1530565 225.357052,88.4946337 225.478391,88.7942137 C225.59973,89.0937937 225.796382,89.3639757 226.068349,89.6061596 C226.34171,89.8483434 226.715489,90.0737284 227.179923,90.2809146 C227.644358,90.4937004 228.21479,90.7022865 228.892613,90.9108726 C229.545332,91.1194587 230.184104,91.3476435 230.80614,91.5912273 C231.425386,91.8334111 231.969319,92.1371909 232.444911,92.5081661 C232.917714,92.8763416 233.295677,93.3425105 233.576012,93.8968735 Z M218.93572,97.0958003 C218.694437,97.4709753 218.376446,97.7789547 217.983141,98.0099393 C217.59402,98.2451237 217.147716,98.4159123 216.656782,98.5181055 C216.170033,98.6244984 215.67352,98.6776948 215.179797,98.6776948 L211.754417,98.6776948 L211.754417,92.5811013 L215.224427,92.5811013 C215.737676,92.5811013 216.239768,92.630098 216.727912,92.7238917 C217.220241,92.8232851 217.651203,92.9940737 218.03335,93.2376575 C218.409919,93.4756416 218.712568,93.7990201 218.946878,94.2007933 C219.182582,94.6067662 219.295552,95.1037331 219.295552,95.7028931 C219.295552,96.2530565 219.178398,96.7164256 218.93572,97.0958003 Z M211.754417,85.3225852 L214.766966,85.3225852 C215.216059,85.3225852 215.662362,85.3603826 216.104482,85.4317779 C216.542417,85.504573 216.935722,85.6375642 217.283002,85.8307513 C217.631677,86.0239384 217.907827,86.285721 218.119821,86.6160989 C218.324842,86.9492767 218.429445,87.3790481 218.429445,87.9138124 C218.429445,88.5101727 218.320658,88.9875408 218.093322,89.3515166 C217.865986,89.7168922 217.567521,89.9968735 217.200715,90.1984601 C216.829725,90.3986468 216.414105,90.5358376 215.956644,90.5960336 C215.503367,90.6604293 215.030564,90.695427 214.547998,90.695427 L211.754417,90.695427 L211.754417,85.3225852 Z M220.368076,92.8960803 C220.023585,92.5237051 219.616333,92.2241251 219.139346,91.9889407 C218.667938,91.7537564 218.156084,91.6123658 217.609362,91.5633691 L217.609362,91.5143724 C218.527073,91.2413906 219.253711,90.7822212 219.79346,90.125665 C220.330419,89.4691087 220.598201,88.6459636 220.598201,87.6450303 C220.598201,86.855483 220.432232,86.194727 220.104478,85.6599627 C219.775329,85.129398 219.344367,84.7010266 218.814381,84.3664489 C218.285791,84.0360709 217.681886,83.7966869 217.008247,83.6524965 C216.336002,83.5083061 215.640047,83.4369109 214.937119,83.4369109 L209.730709,83.4369109 L209.730709,100.563369 L214.81578,100.563369 C215.600996,100.563369 216.39179,100.494774 217.189557,100.346384 C217.983141,100.203593 218.701411,99.9488101 219.333209,99.5848343 C219.967797,99.2208586 220.481046,98.7336911 220.87993,98.1191321 C221.269051,97.504573 221.468493,96.7276248 221.468493,95.7714886 C221.468493,95.210126 221.369469,94.6823612 221.177001,94.189594 C220.984532,93.6996267 220.715356,93.2670555 220.368076,92.8960803 Z M165.741076,95.0239384 C165.385428,95.8624825 164.904257,96.5526365 164.293379,97.0958003 C163.683895,97.6347643 162.958652,98.0323378 162.123227,98.2899207 C161.287803,98.5489034 160.379854,98.6776948 159.40217,98.6776948 L155.545828,98.6776948 L155.545828,85.3225852 L159.40217,85.3225852 C160.379854,85.3225852 161.287803,85.4513766 162.123227,85.7089594 C162.958652,85.970742 163.683895,86.3655156 164.293379,86.9044797 C164.904257,87.4476435 165.385428,88.1377975 165.741076,88.9763416 C166.09254,89.8148857 166.269667,90.8200187 166.269667,92.00014 C166.269667,93.1760616 166.09254,94.189594 165.741076,95.0239384 M167.014436,86.9800747 C167.453766,87.6170322 167.796862,88.3491834 168.053486,89.180728 C168.311505,90.0122725 168.439818,90.9488101 168.439818,92.00014 C168.439818,93.0472702 168.311505,93.9880075 168.053486,94.819552 C167.796862,95.6496967 167.453766,96.3818479 167.014436,97.0202053 C166.583474,97.6571629 166.079988,98.2031265 165.509556,98.6552963 C164.943308,99.1060663 164.344982,99.470042 163.725736,99.7542231 C163.109279,100.035604 162.485849,100.241391 161.858235,100.370182 C161.232015,100.498973 160.637873,100.563369 160.077204,100.563369 L153.519331,100.563369 L153.519331,83.4369109 L160.077204,83.4369109 C160.637873,83.4369109 161.232015,83.5013066 161.858235,83.630098 C162.485849,83.7602893 163.109279,83.9688754 163.725736,84.244657 C164.344982,84.5288381 164.943308,84.8984134 165.509556,85.3491834 C166.079988,85.7971535 166.583474,86.3389174 167.014436,86.9800747 Z M174.320286,91.1769949 L179.261703,83.4369109 L181.695452,83.4369109 L175.334232,93.1886608 L175.334232,100.563369 L173.307734,100.563369 L173.307734,93.1886608 L166.94233,83.4369109 L169.525312,83.4369109 L174.320286,91.1769949 Z M148.530634,97.6610826 L148.530634,83.4366309 L150.552947,83.4366309 L150.552947,100.563089 L148.000648,100.563089 L138.116419,86.3400373 L138.071788,86.3400373 L138.071788,100.563089 L136.045291,100.563089 L136.045291,83.4366309 L138.600379,83.4366309 L148.481819,97.6610826 L148.530634,97.6610826 Z" id="Wortmarke" fill="#ffffff"></path>
                    <path d="M85.9883191,77.2670875 C90.3793044,80.31245 93,85.3404776 93,90.7260351 C93,99.699609 85.8215728,107 77.0020843,107 C68.1784272,107 61,99.699609 61,90.7260351 C61,85.3404776 63.6248643,80.31245 68.0158496,77.2670875 L68.4077033,77 L71.0673064,80.9780489 L70.6740631,81.250789 C67.5795302,83.3945546 65.7342047,86.9345235 65.7342047,90.7260351 C65.7342047,97.0414527 70.7880064,102.18112 77.0020843,102.18112 C83.2161622,102.18112 88.269964,97.0414527 88.269964,90.7260351 C88.269964,86.9345235 86.4218594,83.3945546 83.3245473,81.250789 L82.9382518,80.9780489 L85.5964653,77 L85.9883191,77.2670875 Z M80.0039885,94 C77.2442565,94 75,91.7865465 75,89.0646926 L75,72 L79.8919911,72 L79.8919911,88.6157708 C79.8919911,88.9230769 80.1490108,89.1751529 80.4620294,89.1751529 L84,89.1751529 L84,94 L80.0039885,94 Z" id="Bildmarke" fill="#AACC44"></path>
                </g>
            </g>
        </g>
    </g>
</svg>
